<?xml version="1.0" encoding="utf-8"?>
<!-- Generator: Adobe Illustrator 21.0.0, SVG Export Plug-In . SVG Version: 6.00 Build 0)  -->
<svg version="1.1" id="Capa_1" 
	xmlns="http://www.w3.org/2000/svg" 
	xmlns:xlink="http://www.w3.org/1999/xlink" x="0px" y="0px" viewBox="0 0 180 239" style="enable-background:new 0 0 180 239;" xml:space="preserve">
	<style type="text/css">
	.st1{clip-path:url(#SVGID_2_);fill:#EDCB97;}
	.st2{clip-path:url(#SVGID_2_);fill:#E8BB84;}
	.st3{clip-path:url(#SVGID_2_);fill:#767A80;}
	.st4{clip-path:url(#SVGID_2_);fill:#E8CDA6;}
	.st5{clip-path:url(#SVGID_2_);fill:#C3C3C3;}
	.st6{clip-path:url(#SVGID_2_);fill:#70747C;}
	.st7{clip-path:url(#SVGID_2_);fill:#2D3A49;}
	.st8{fill:none;stroke:#504F4B;stroke-width:2;stroke-linecap:round;stroke-linejoin:round;stroke-miterlimit:10;}
	.st9{clip-path:url(#SVGID_4_);fill:#CF6041;}
	.st10{clip-path:url(#SVGID_4_);fill:#E8CDA6;}
	.st11{clip-path:url(#SVGID_4_);fill:#E8CEA8;}
	.st12{clip-path:url(#SVGID_4_);}
	.st13{fill:#ECD1AA;}
	.st14{fill:#26323E;}
	.st15{fill:#ECCB9A;}
	.st16{fill:#4C6970;}
	.st17{fill:#F2F2F1;}
	.st18{fill:#E5BB86;}
	.st19{fill:#E8CEA8;}
	.st20{fill:#2C3A48;}
	.st21{opacity:0.1;fill:#2D3A49;}
	.st22{fill:#303B4A;}
	.st23{fill:#2D3A49;}
	.st24{fill:#E1E1DF;}
	.st25{clip-path:url(#SVGID_10_);fill:#95BDC3;}
	.st26{clip-path:url(#SVGID_10_);fill:#F4E0C6;}
	.st27{clip-path:url(#SVGID_10_);fill:#E2C9AF;}
	.st28{clip-path:url(#SVGID_10_);fill:#AA4444;}
	.st29{clip-path:url(#SVGID_10_);fill:#EAD2B5;}
	.st30{clip-path:url(#SVGID_10_);fill:#A04242;}
	.st31{clip-path:url(#SVGID_10_);fill:#DDB237;}
	.st32{clip-path:url(#SVGID_10_);fill:#E8CDA6;}
	.st33{clip-path:url(#SVGID_12_);fill:#CF6041;}
	.st34{clip-path:url(#SVGID_12_);fill:#C4A578;}
	.st35{clip-path:url(#SVGID_12_);fill:#A58760;}
	.st36{clip-path:url(#SVGID_12_);fill:#95BDC3;}
	.st37{clip-path:url(#SVGID_12_);}
	.st38{clip-path:url(#SVGID_14_);}
	.st39{fill:#95BDC3;}
	.st40{fill:#E7F6F7;}
	.st41{fill:#CAEBEF;}
	.st42{clip-path:url(#SVGID_12_);fill:#AF9268;}
	.st43{clip-path:url(#SVGID_12_);fill:#C3C3C3;}
	.st44{opacity:0.42;clip-path:url(#SVGID_12_);fill:#8AB8BC;}
	.st45{clip-path:url(#SVGID_12_);fill:#2D3A49;}
	.st46{clip-path:url(#SVGID_12_);fill:#E8CDA6;}
	.st47{clip-path:url(#SVGID_16_);fill:#95BDC3;}
	.st48{clip-path:url(#SVGID_16_);fill:#767A80;}
	.st49{clip-path:url(#SVGID_16_);fill:#70747C;}
	.st50{clip-path:url(#SVGID_16_);}
	.st51{clip-path:url(#SVGID_18_);}
	.st52{fill:#504F4B;}
	.st53{clip-path:url(#SVGID_16_);fill:#F4E0C6;}
	.st54{clip-path:url(#SVGID_16_);fill:#EAD2B5;}
	.st55{clip-path:url(#SVGID_16_);fill:#C3C3C3;}
	.st56{opacity:0.19;clip-path:url(#SVGID_16_);fill:#70747C;}
	.st57{clip-path:url(#SVGID_16_);fill:#A0835D;}
	.st58{clip-path:url(#SVGID_16_);fill:#E8CDA6;}
	.st59{clip-path:url(#SVGID_20_);fill:#95BDC3;}
	.st60{clip-path:url(#SVGID_20_);fill:#EDCB97;}
	.st61{clip-path:url(#SVGID_20_);fill:#E8BB84;}
	.st62{clip-path:url(#SVGID_20_);fill:#504F4B;}
	.st63{clip-path:url(#SVGID_20_);fill:#E8CDA6;}
	.st64{clip-path:url(#SVGID_20_);fill:#4C4B48;}
	.st65{clip-path:url(#SVGID_20_);fill:#C6C6C6;}
	.st66{fill:#DDB237;}
	.st67{fill:#D3A42F;}
	.st68{clip-path:url(#SVGID_22_);fill:#CF6041;}
	.st69{clip-path:url(#SVGID_22_);fill:#A58760;}
	.st70{clip-path:url(#SVGID_22_);fill:#997A56;}
	.st71{clip-path:url(#SVGID_22_);fill:#FFF3E1;}
	.st72{clip-path:url(#SVGID_22_);fill:#AF9268;}
	.st73{clip-path:url(#SVGID_22_);fill:#C3C3C3;}
	.st74{clip-path:url(#SVGID_22_);fill:#F7E8D5;}
	.st75{clip-path:url(#SVGID_22_);fill:#2D3A49;}
	.st76{clip-path:url(#SVGID_22_);fill:#E8CDA6;}
	.st77{fill:#FCFCFC;}
	.st78{clip-path:url(#SVGID_24_);fill:#CF6041;}
	.st79{clip-path:url(#SVGID_24_);fill:#846645;}
	.st80{clip-path:url(#SVGID_24_);fill:#7C5D3E;}
	.st81{clip-path:url(#SVGID_24_);fill:#FFFFFF;}
	.st82{clip-path:url(#SVGID_24_);fill:#967951;}
	.st83{clip-path:url(#SVGID_24_);fill:#C6C6C6;}
	.st84{clip-path:url(#SVGID_24_);fill:#C3C3C3;}
	.st85{clip-path:url(#SVGID_24_);fill:#F7F7F7;}
	.st86{clip-path:url(#SVGID_24_);fill:#E8CDA6;}
	.st87{fill:#A0835D;}
	.st88{fill:#F4E0C6;}
	.st89{fill:#846645;}
	.st90{fill:#F4E9DF;fill-opacity:0.46;stroke:#2D3A49;stroke-linecap:round;stroke-linejoin:round;stroke-miterlimit:10;}
	.st91{fill:#F7F7F7;}
	.st92{clip-path:url(#SVGID_26_);fill:#95BDC3;}
	.st93{clip-path:url(#SVGID_26_);fill:#E8CDA6;}
	.st94{clip-path:url(#SVGID_26_);fill:#E8CEA8;}
	.st95{clip-path:url(#SVGID_26_);}
	.st96{fill:#1F2A33;}
	.st97{fill:#AA4444;}
	.st98{fill:#A04242;}
	.st99{clip-path:url(#SVGID_32_);fill:#95BDC3;}
	.st100{clip-path:url(#SVGID_32_);fill:#E8CDA6;}
	.st101{clip-path:url(#SVGID_32_);fill:#E8CEA8;}
	.st102{clip-path:url(#SVGID_32_);}
	.st103{clip-path:url(#SVGID_38_);fill:#95BDC3;}
	.st104{clip-path:url(#SVGID_38_);fill:#E8CDA6;}
	.st105{clip-path:url(#SVGID_38_);fill:#E8CEA8;}
	.st106{clip-path:url(#SVGID_38_);}
	.st107{clip-path:url(#SVGID_44_);fill:#CF6041;}
	.st108{clip-path:url(#SVGID_44_);fill:#E8CDA6;}
	.st109{clip-path:url(#SVGID_44_);fill:#E8CEA8;}
	.st110{clip-path:url(#SVGID_44_);}
	.st111{fill:#E2C9AF;}
	.st112{fill:#EAD2B5;}
	.st113{clip-path:url(#SVGID_44_);fill:#2D3A49;}
	.st114{clip-path:url(#SVGID_50_);fill:#95BDC3;}
	.st115{clip-path:url(#SVGID_50_);fill:#E8CDA6;}
	.st116{clip-path:url(#SVGID_50_);fill:#E8CEA8;}
	.st117{clip-path:url(#SVGID_50_);}
	.st118{clip-path:url(#SVGID_56_);fill:#CF6041;}
	.st119{clip-path:url(#SVGID_56_);fill:#E8CDA6;}
	.st120{clip-path:url(#SVGID_56_);fill:#E8CEA8;}
	.st121{clip-path:url(#SVGID_56_);fill:#2D3A49;}
	.st122{clip-path:url(#SVGID_56_);}
	.st123{fill:#AF9268;}
	.st124{fill:#A58760;}
	.st125{fill:#ADACAC;}
	.st126{clip-path:url(#SVGID_62_);fill:#95BDC3;}
	.st127{clip-path:url(#SVGID_62_);fill:#E8CDA6;}
	.st128{clip-path:url(#SVGID_62_);fill:#E8CEA8;}
	.st129{clip-path:url(#SVGID_62_);}
	.st130{fill:#C6C6C6;}
	.st131{clip-path:url(#SVGID_68_);fill:#95BDC3;}
	.st132{clip-path:url(#SVGID_68_);fill:#E8CDA6;}
	.st133{clip-path:url(#SVGID_68_);fill:#E8CEA8;}
	.st134{clip-path:url(#SVGID_68_);}
	.st135{clip-path:url(#SVGID_74_);fill:#CF6041;}
	.st136{clip-path:url(#SVGID_74_);fill:#E8CDA6;}
	.st137{clip-path:url(#SVGID_74_);fill:#E8CEA8;}
	.st138{clip-path:url(#SVGID_74_);}
	.st139{fill:#967951;}
	.st140{fill:#7C5D3E;}
	.st141{fill:#6D3A21;}
	</style>
	<g>
		<defs>
			<path id="SVGID_21_" d="M167.2-7.8H12.8v154.4h0.5c-0.3,2.8-0.5,5.6-0.5,8.5c0,42.6,34.6,77.2,77.2,77.2s77.2-34.6,77.2-77.2
			c0-2.9-0.2-5.7-0.5-8.5h0.5V-7.8z"/>
		</defs>
		<clipPath id="SVGID_2_">
			<use xlink:href="#SVGID_21_" style="overflow:visible;"/>
		</clipPath>
		<path style="clip-path:url(#SVGID_2_);fill:#A58760;" d="M69.3,102c3.8-2.4,6-10.6,6-12.3h30.5c0,1.7-0.5,9,3.3,11.4l-18.6,20.8
		L69.3,102z"/>
		<path style="clip-path:url(#SVGID_2_);fill:#997A56;" d="M102.4,108.3l6.7-7.2c-3.8-2.4-3.3-9.7-3.3-11.4H75.3
		C77.4,96,91.9,106.8,102.4,108.3"/>
		<path style="clip-path:url(#SVGID_2_);fill:#FFF3E1;" d="M125.5,267.6c4-137.1,19.3-161.8,9.3-165L106,98
		c-8.1,6.2-6,14.4-15.5,14.4c-9.5,0-9.4-9.2-17.5-15.4l-26.7,5.6c-10.1,3.2,8.4,27.9,12.4,165H125.5z"/>
		<path style="clip-path:url(#SVGID_2_);fill:#AF9268;" d="M64.1,64.8c0,0,3.9,13.6,6.3,19.4c2.5,5.8,12,14.5,14.9,14.5
		c2.9,0,14.2-2.5,14.2-2.5s9.1-5,11.2-11.2c2.1-6.2,6.8-29.7,6.8-29.7l-1.4-15.9l-26.2-4.2l-25,5L64.1,64.8z"/>
		<path style="clip-path:url(#SVGID_2_);fill:#A58760;" d="M85.3,98.7c0,0,18.7,2.3,25.3-13.6c2.5-6,6.8-29.7,6.8-29.7l-1.4-15.9
		l-39.6-4.2"/>
		<path style="clip-path:url(#SVGID_2_);fill:#FFF3E1;" d="M137.7,106.3l-4.2,44.4l13.8,39.2l4.5,75.4c0,0,0.3,5.1,4.5,4.2l4.2-0.9
		v-3.3c0,0-0.4-81,0-82C160.9,182.2,137.7,106.3,137.7,106.3"/>
		<path class="st5" d="M160.6,183.3c0.4-1-22.9-77-22.9-77"/>
		<polygon style="clip-path:url(#SVGID_2_);fill:#F7E8D5;" points="133,155.6 119.3,179.8 115.8,225.3 86.8,268.6 125.2,268.6 	"/>
		<path class="st7" d="M64,65c-0.2,0.8-4.1-28.9-1.3-34C67,23,72.3,18.9,77,18c26-5,36.1,1.8,41,10c3,5,4,11,2.1,19.9l-2.6,9.5
		l-2.5,9.9L114,53l0.2-3.7l-6.4,0.6c0,0,1.9-5.8,0.3-6.9c-1.7-1.1-9.1,1.7-14.1,3.9c-5,2.2-13,6.1-17.7,3c-4.7-3-8.9-3.9-11.6,7.5" />
		<path style="clip-path:url(#SVGID_2_);fill:#FFF3E1;" d="M44.9,106.3l5,45.3l-14.6,38.3l-4.6,75.4c0,0-0.3,5.1-4.5,4.2l-4.2-0.9
		v-3.3c0,0,0.4-81,0-82C21.6,182.2,44.9,106.3,44.9,106.3"/>
	</g>
	<polygon class="st23" points="85,106 90,108 94,106 98,113 93,123 87,123 82,114 "/>
	<polygon class="st77" points="106,93 93.1,105.2 103,125 109,105 "/>
	<polygon class="st77" points="74.1,93 87,105.2 77.1,125 71.1,105 "/>
	<polygon class="st23" points="87,123 85.7,129.7 83,211 90,222 99,211 94.5,129.8 93,123 "/>
</svg>
