<?xml version="1.0" encoding="utf-8"?>
<!-- Generator: Adobe Illustrator 22.0.1, SVG Export Plug-In . SVG Version: 6.00 Build 0)  -->
<svg version="1.1" id="Capa_2" xmlns="http://www.w3.org/2000/svg" xmlns:xlink="http://www.w3.org/1999/xlink" x="0px" y="0px"
	 viewBox="0 0 66 66" style="enable-background:new 0 0 66 66;" xml:space="preserve">
<style type="text/css">
	.st0{fill:#1565C0;}
	.st1{fill:#E4E4E4;}
	.st2{fill:#EFEFEE;}
	.st3{fill:#FFFFFF;}
</style>
<g>
	<circle class="st0" cx="33.1" cy="33" r="32.4"/>
	<path class="st1" d="M33.1,1c17.6,0,32,14.4,32,32c0,17.6-14.4,32-32,32c-17.6,0-32-14.4-32-32C1.1,15.3,15.5,1,33.1,1 M33.1,0.1
		L33.1,0.1C15,0.1,0.2,14.8,0.2,33v0c0,18.2,14.7,32.9,32.9,32.9h0C51.3,65.9,66,51.1,66,33v0C66,14.8,51.3,0.1,33.1,0.1L33.1,0.1z"
		/>
</g>
<g>
	<path class="st2" d="M55.1,29.5c-4.3-7-10.1-11.2-13-9.4c-1.9,1.2-14.3,20-14.3,20l-3.5,4.2l-5.6,1.4c-1.1,0.6-0.7,3.3,0.9,6
		c1.5,2.7,3.7,4.3,4.7,3.7c0,0,0.1,0,0.1-0.1l0,0l4.4-4.3l3.6,6.5c0.5,0.9,1.6,1.2,2.5,0.7c0.9-0.5,1.2-1.6,0.7-2.5l-0.7-1.3
		L33.6,52l-1.1-2l24.1-4.4c0.1,0,0.1,0,0.1-0.1c0.3-0.1,0.6-0.2,0.9-0.3C60.5,43.5,59.4,36.4,55.1,29.5z M56,43
		c-2.2,1.4-6.9-2-10.3-7.6c-3.5-5.6-4.4-11.3-2.2-12.6c2.2-1.4,6.9,2,10.3,7.6C57.2,35.9,58.2,41.6,56,43z"/>
	<path class="st2" d="M52.7,30.1c1.5,2.7,0.5,6.1-2.1,7.6c-2.7,1.5-8.1-8.2-5.4-9.7C47.8,26.5,51.2,27.4,52.7,30.1z"/>
</g>
<g>
	<polygon class="st3" points="21.2,30.3 18.3,9 9.3,21.9 	"/>
	<polygon class="st3" points="21.2,12.3 24,33.5 33,20.5 	"/>
</g>
</svg>
